05-3-VDem_Data.knit
…
---

background-image: url('libs/Images/background-light_grey.jpg')
background-size: 100%
background-position: center
class: middle

.center[.size55[.content-box-white[**Experts Often Disagree (1900-2015)**]]]

<img src="libs/Images/05_3-V-Dem_Coding_Disagreements1.png" width="100%" style="display: block; margin: auto;" />

???

```
# A tibble: 23 × 6
   country_name  year v2clkill_ord_codelow v2clkill_ord v2clkill_ord_codehigh
   <chr>        <dbl>                <dbl>        <dbl>                 <dbl>
 1 Canada        2000                    4            4                     4
 2 Canada        2001                    4            4                     4
 3 Canada        2002                    4            4                     4
 4 Canada        2003                    4            4                     4
 5 Canada        2004                    4            4                     4
 6 Canada        2005                    4            4                     4
 7 Canada        2006                    4            4                     4
 8 Canada        2007                    4            4                     4
 9 Canada        2008                    4            4                     4
10 Canada        2009                    4            4                     4
# ℹ 13 more rows
# ℹ 1 more variable: v2clkill_nr <dbl>
```

```
# A tibble: 23 × 6
   country_name  year v2clkill_ord_codelow v2clkill_ord v2clkill_ord_codehigh
   <chr>        <dbl>                <dbl>        <dbl>                 <dbl>
 1 Germany       2000                    4            4                     4
 2 Germany       2001                    4            4                     4
 3 Germany       2002                    4            4                     4
 4 Germany       2003                    4            4                     4
 5 Germany       2004                    4            4                     4
 6 Germany       2005                    4            4                     4
 7 Germany       2006                    4            4                     4
 8 Germany       2007                    4            4                     4
 9 Germany       2008                    4            4                     4
10 Germany       2009                    4            4                     4
# ℹ 13 more rows
# ℹ 1 more variable: v2clkill_nr <dbl>
```
…
