13-2-PIRUS_Dataset.knit
…
```
# A tibble: 5 × 3
  Violent Gender     n
    <dbl>  <dbl> <int>
1       0      1   218
2       0      2  1081
3       0      3     1
4       1      1   137
5       1      2  1766
```

```
# A tibble: 24 × 3
   Violent Education     n
     <dbl>     <dbl> <int>
 1       0       -99   681
 2       0         1     7
 3       0         2    46
 4       0         3   153
 5       0         4   157
 6       0         5   152
 7       0         6     7
 8       0         7    13
 9       0         8     8
10       0         9    36
# ℹ 14 more rows
```
…
